{
  // "compilerOptions": {
  //   "baseUrl": ".",
  //   "paths": {
  //     "@/*": ["./[vue-whatsapp]/src/*"]
  //   }
  // },
  // "include": ["./[vue-whatsapp]/src/**/*"],
  // "exclude": ["node_modules"]
  // "jsx": "vue"
}
